<?xml version="1.0" encoding="utf-8"?>
<!-- Generator: Adobe Illustrator 22.0.0, SVG Export Plug-In . SVG Version: 6.00 Build 0)  -->
<svg version="1.1" id="Layer_1" xmlns="http://www.w3.org/2000/svg" xmlns:xlink="http://www.w3.org/1999/xlink" x="0px" y="0px"
	 viewBox="0 0 167.6 167.6" style="enable-background:new 0 0 167.6 167.6;" xml:space="preserve">
<style type="text/css">
	.st0{fill:#7CB240;}
</style>
<title>Prancheta 9icons</title>
<polygon class="st0" points="72.6,54.9 50.5,54.9 69.6,129.8 85,129.8 167.5,0 144,0 82,95.2 "/>
</svg>
